{
    "current_page": 1,
    "data": [
        {
            "id": 113,
            "name": "davizin o brabio",
            "kills": 2,
            "total_players": 3,
            "logo": "691bd1ed6661d.png",
            "description": "This is the guildboard for the great davizin o brabio guild!"
        },
        {
            "id": 95,
            "name": "davzzinaaaa",
            "kills": 1,
            "total_players": 1,
            "logo": "64c83afee1c6e.jpg",
            "description": "This is the guildboard for the great davzzinaaaa guild!"
        },
        {
            "id": 103,
            "name": "adminssssdaaa",
            "kills": 1,
            "total_players": 1,
            "logo": "64c83afee1c6e.jpg",
            "description": "This is the guildboard for the great adminssssdaaa guild!"
        },
        {
            "id": 109,
            "name": "Will Mata Tudo",
            "kills": 1,
            "total_players": 1,
            "logo": "650455bb8267f.gif",
            "description": "This is the guildboard for the great Will Mata Tudo guild!"
        },
        {
            "id": 78,
            "name": "teste",
            "kills": 0,
            "total_players": 2,
            "logo": "64c83afee1c6e.jpg",
            "description": ""
        }
    ],
    "first_page_url": "http://localhost:8000/api/guilds?page=1",
    "from": 1,
    "last_page": 7,
    "last_page_url": "http://localhost:8000/api/guilds?page=7",
    "links": [
        {
            "url": null,
            "label": "&laquo; Previous",
            "active": false
        },
        {
            "url": "http://localhost:8000/api/guilds?page=1",
            "label": "1",
            "active": true
        },
        {
            "url": "http://localhost:8000/api/guilds?page=2",
            "label": "2",
            "active": false
        },
        {
            "url": "http://localhost:8000/api/guilds?page=3",
            "label": "3",
            "active": false
        },
        {
            "url": "http://localhost:8000/api/guilds?page=4",
            "label": "4",
            "active": false
        },
        {
            "url": "http://localhost:8000/api/guilds?page=5",
            "label": "5",
            "active": false
        },
        {
            "url": "http://localhost:8000/api/guilds?page=6",
            "label": "6",
            "active": false
        },
        {
            "url": "http://localhost:8000/api/guilds?page=7",
            "label": "7",
            "active": false
        },
        {
            "url": "http://localhost:8000/api/guilds?page=2",
            "label": "Next &raquo;",
            "active": false
        }
    ],
    "next_page_url": "http://localhost:8000/api/guilds?page=2",
    "path": "http://localhost:8000/api/guilds",
    "per_page": 5,
    "prev_page_url": null,
    "to": 5,
    "total": 32
}