{
    "current_page": 1,
    "data": [
        {
            "id": 95,
            "name": "davzzinaaaa",
            "kills": 1,
            "total_players": 1,
            "logo": "64c83afee1c6e.jpg",
            "description": "This is the guildboard for the great davzzinaaaa guild!"
        },
        {
            "id": 108,
            "name": "DavizeRaa",
            "kills": 1,
            "total_players": 1,
            "logo": "650446d7b581d.webp",
            "description": "This is the guildboard for the great DavizeRaa guild!"
        },
        {
            "id": 109,
            "name": "Will Mata Tudo",
            "kills": 1,
            "total_players": 1,
            "logo": "650455bb8267f.gif",
            "description": "This is the guildboard for the great Will Mata Tudo guild!"
        },
        {
            "id": 103,
            "name": "adminssssdaaa",
            "kills": 1,
            "total_players": 1,
            "logo": "64c83afee1c6e.jpg",
            "description": "This is the guildboard for the great adminssssdaaa guild!"
        },
        {
            "id": 101,
            "name": "adminssssdaasdaasdsa",
            "kills": 0,
            "total_players": 0,
            "logo": "64c83afee1c6e.jpg",
            "description": "This is the guildboard for the great adminssssdaasdaasdsa guild!"
        }
    ],
    "first_page_url": "http://localhost:8000/api/guilds?page=1",
    "from": 1,
    "last_page": 6,
    "last_page_url": "http://localhost:8000/api/guilds?page=6",
    "links": [
        {
            "url": null,
            "label": "&laquo; Previous",
            "active": false
        },
        {
            "url": "http://localhost:8000/api/guilds?page=1",
            "label": "1",
            "active": true
        },
        {
            "url": "http://localhost:8000/api/guilds?page=2",
            "label": "2",
            "active": false
        },
        {
            "url": "http://localhost:8000/api/guilds?page=3",
            "label": "3",
            "active": false
        },
        {
            "url": "http://localhost:8000/api/guilds?page=4",
            "label": "4",
            "active": false
        },
        {
            "url": "http://localhost:8000/api/guilds?page=5",
            "label": "5",
            "active": false
        },
        {
            "url": "http://localhost:8000/api/guilds?page=6",
            "label": "6",
            "active": false
        },
        {
            "url": "http://localhost:8000/api/guilds?page=2",
            "label": "Next &raquo;",
            "active": false
        }
    ],
    "next_page_url": "http://localhost:8000/api/guilds?page=2",
    "path": "http://localhost:8000/api/guilds",
    "per_page": 5,
    "prev_page_url": null,
    "to": 5,
    "total": 26
}